digraph G {
24 -> 19;
24 -> 18;
23 -> 17;
23 -> 3;
28 -> 26;
28 -> 4;
17 -> 13;
17 -> 18;
20 -> 14;
20 -> 5;
29 -> 27;
29 -> 4;
13 -> 7;
13 -> 6;
25 -> 21;
25 -> 20;
18 -> 7;
18 -> 5;
30 -> 29;
30 -> 28;
19 -> 7;
19 -> 5;
16 -> 12;
16 -> 14;
27 -> 25;
27 -> 24;
21 -> 15;
21 -> 3;
15 -> 7;
15 -> 5;
31 -> 2;
31 -> 1;
32 -> 31;
32 -> 30;
12 -> 7;
12 -> 6;
14 -> 7;
14 -> 6;
26 -> 23;
26 -> 22;
22 -> 16;
22 -> 3;
}
