digraph G {
10 -> 5;
10 -> 4;
12 -> 6;
12 -> 3;
17 -> 13;
17 -> 12;
14 -> 6;
14 -> 4;
20 -> 17;
20 -> 5;
13 -> 14;
13 -> 3;
21 -> 19;
21 -> 18;
24 -> 23;
24 -> 22;
16 -> 11;
16 -> 6;
19 -> 16;
19 -> 15;
18 -> 14;
18 -> 3;
23 -> 2;
23 -> 1;
15 -> 10;
15 -> 3;
22 -> 21;
22 -> 20;
11 -> 5;
11 -> 4;
}
